{
	"process_id" : 10908,
	"version" : "2019.4.15f1",
	"app_path" : "/Applications/Unity/Hub/Editor/2019.4.15f1/Unity.app",
	"app_contents_path" : "/Applications/Unity/Hub/Editor/2019.4.15f1/Unity.app/Contents"
}